<svg height='300px' width='300px'  fill="#ffffff" xmlns="http://www.w3.org/2000/svg" xmlns:xlink="http://www.w3.org/1999/xlink" xml:space="preserve" version="1.1" style="shape-rendering:geometricPrecision;text-rendering:geometricPrecision;image-rendering:optimizeQuality;" viewBox="0 0 846.66 846.66" x="0px" y="0px" fill-rule="evenodd" clip-rule="evenodd"><defs><style type="text/css">
   
    .fil0 {fill:#ffffff}
   
  </style></defs><g><path class="fil0" d="M671.2 544.68l-49.53 -39.74 86.27 -25.82 0 -57.63 -119 35.61 -119.01 -35.61 0 57.63 86.27 25.82 -49.52 39.74 0 198.1c0,108.08 164.52,108.08 164.52,0l0 -198.1zm-528.93 -289.12l0 -159.48 26.78 0 0 159.48 -26.78 0zm50.8 37.8l0 -159.47 26.79 0 0 159.47 -26.79 0zm83.88 -74.43l0 -118.11 26.79 0 0 118.11 -26.79 0zm102.77 -119.3l0 -76.81 26.79 0 0 76.81 -26.79 0zm74.44 33.09l0 -63.81 26.79 0 0 63.81 -26.79 0zm163.01 -10.64l0 -63.81 26.79 0 0 63.81 -26.79 0zm63.8 245.74l0 -229.22 26.79 0 0 229.22 -26.79 0zm-163.02 -251.67l0 -89.77 26.79 0 0 89.77 -26.79 0zm55.95 132.88l-49.52 -39.74 86.27 -25.81 0 -57.64 -119.01 35.62 -119 -35.62 0 57.64 86.27 25.81 -49.53 39.74 0 198.1c0,53.6 51.05,92.88 102.43,79.73l21.81 -17.51 -74.4 -22.25 0 -79.98 114.68 34.32 0 -192.41zm-233.9 179.56l-49.53 -39.74 86.27 -25.82 0 -57.63 -119 35.61 -119.01 -35.61 0 57.63 86.27 25.82 -49.53 39.74 0 198.1c0,108.08 164.53,108.08 164.53,0l0 -198.1z"></path></g></svg>